{
  "$schema": "http://json.schemastore.org/launchsettings.json",
  "profiles": {
    "FinanceTracker.Apis.Account": {
      "commandName": "Project",
      "environmentVariables": {
        "CONFIG_DIR": "./Configuration",
        "ASPNETCORE_ENVIRONMENT": "Development"
      },
      "applicationUrl": "http://localhost:5002"
    },
    "Docker": {
      "commandName": "Docker",
      "launchUrl": "{Scheme}://{ServiceHost}:{ServicePort}",
      "publishAllPorts": true,
      "useSSL": true
    }
  }
}